{
    "antifeatures": {
        "Ads": "Гэтая праграма змяшчае рэкламу",
        "DisabledAlgorithm": "Гэтая праграма мае слабы подпіс бяспекі",
        "KnownVuln": "Гэтая праграма змяшчае вядомую ўразлівасць бяспекі",
        "NoSourceSince": "Зыходны код больш не даступны, абнаўляць немагчыма",
        "NonFreeAdd": "Гэтая праграма прапануе несвабодныя дапаўненні",
        "NonFreeAssets": "У праграмы ёсць несвабоднае змесціва",
        "NonFreeDep": "Гэтая праграма залежыць ад іншых несвабодных праграм",
        "NonFreeNet": "Гэтая праграма прапануе несвабодныя сеткавыя паслугі",
        "Tracking": "Гэтая праграма адсочвае вашу актыўнасць",
        "UpstreamNonFree": "Зыходны код не поўнасцю свабодны"
    },
    "app_categories": {
        "Connectivity": "Сувязь",
        "Development": "Распрацоўка",
        "Games": "Гульні",
        "Graphics": "Графіка",
        "Internet": "Інтэрнэт",
        "Money": "Фінансы",
        "Multimedia": "Мультымедыя",
        "Navigation": "Навігацыя",
        "Phone & SMS": "Тэлефон і SMS",
        "Reading": "Чытанне",
        "Science & Education": "Навука і адукацыя",
        "Security": "Бяспека",
        "Sports & Health": "Спорт і здароўе",
        "System": "Сістэма",
        "Theming": "Тэмы",
        "Time": "Час",
        "Writing": "Праца з тэкстам",
        "show_all_packages": "Праглядзець усе %d праграм"
    },
    "index": {
        "download_fdroid": "Спампаваць F-Droid",
        "gpg_signature": "Подпіс PGP",
        "introduction": "F-Droid — каталог праграм FOSS (вольнага і адкрытага праграмнага забясчэння) для платформы Андроід. Кліент спрашчае пошук, усталёўку і сачэнне за абнаўленнямі на вашай прыладзе.",
        "screenshot": "Здымак экрана з F-Droid для Андроід",
        "title": "Што такое F-Droid?"
    },
    "navigation": {
        "about": "Пра нас",
        "apps": "Праграмы",
        "contribute": "Удзел",
        "documentation": "Дакументацыя",
        "edit_on_gitlab": "Рэдагаваць на GitLab",
        "forum": "Форум",
        "issues": "Праблемы",
        "news": "Навіны",
        "translate_on_weblate": "Перакласці на Weblate"
    },
    "package": {
        "added_on": "Дададзена {{ package_added_date }}",
        "anti_features": "Непажаданыя функцыі",
        "anti_features_warning": "У праграме ёсць функцыі, што могуць вам не спадабацца.",
        "author": "Аўтар",
        "build_log": "Журнал зборкі",
        "build_metadata": "Метаданыя зборкі",
        "changelog": "Гісторыя змен",
        "donate": "Ахвяраваць",
        "download": "Спампаваць {{ file_extension }}",
        "flattr": "Flattr",
        "gpg_signature": "Подпіс PGP",
        "issue_tracker": "Трэкер хібаў",
        "liberapay": "Liberapay",
        "license": "Ліцэнзія",
        "minimum_android_version": "Для гэтай версіі патрабуцца Андроід {{ android_version }} ці вышэй.",
        "new_in_version": "Новае ў версіі {{ latest_version }}",
        "opencollective": "Адкрыць Collective",
        "package_icon_alt": "значок пакунка",
        "package_screenshot_alt": "здымак экрана праграмы",
        "packages": "Пакункі",
        "permissions": "Дазволы",
        "signed_by_developer": "Сабрана і падпісана арыгінальным распрацоўшчыкам.",
        "signed_by_fdroid": "Сабрана і падпісана F-Droid, і гарантавана адпавядае <a href=\"{{ source_code_url }}\">архіву зыходнага кода</a>.",
        "source_code": "Зыходны код",
        "suggest_downloading_via_fdroid": "Вы маеце магчымасць проста спампаваць APK, але звярніце ўвагу, што пры такім спосабе вы не будзеце атрымліваць апавяшчэнняў пра абнаўленні, і гэта менш бяспечны спосаб. Мы рэкамендуем усталяваць і выкарыстоўваць кліент F-Droid.",
        "suggested": "прапанавана",
        "technical_info": "Тэхнічныя звесткі",
        "translation": "Пераклад",
        "version_info": "<b>Версія {{ package_version }}</b> ({{ package_version_code }})",
        "website": "Сайт"
    },
    "permissions": {
        "permdesc_acceptHandovers": "Дазваляе праграме працягваць выклік, які пачаўся ў іншай праграме.",
        "permdesc_accessBackgroundLocation": "Калі, апроч доступу да прыкладнага ці дакладнага месцазнаходжання, вы дасце гэты дазвол, праграма зможа вызначаць геалакацыю ў фонавым рэжыме працы.",
        "permdesc_accessCoarseLocation": "Гэтая праграма можа атрымліваць звесткі пра ваша месцазнаходжанне толькі ў актыўным рэжыме на падставе даных сеткавых крыніц, такіх як вышкі сотавай сувязі і сеткі Wi-Fi. Каб праграма магла карыстацца гэтымі службамі геалакацыі, неабходна ўключыць і зрабіць іх даступнымі на тэлефоне.",
        "permdesc_accessDrmCertificates": "Дае праграме магчымасць выкарыстоўваць сертыфікаты DRM. Ніколі не патрабуецца для звычайных праграм.",
        "permdesc_accessFineLocation": "Гэтая праграма можа атрымліваць звесткі пра ваша дакладнае месцазнаходжанне толькі ў асноўным рэжыме. Службы геалакацыі павінны быць уключаныя і даступныя на вашым тэлефоне, каб праграма магла імі карыстацца. Гэта можа павялічыць спажыванне зараду акумулятара.",
        "permdesc_accessImsCallService": "Дае праграмам магчымасць выкарыстоўваць службу IMS, каб здзяйсняць выклікі без вашага ўмяшання.",
        "permdesc_accessLocationExtraCommands": "Дае праграме магчымасць атрымліваць доступ да дадатковых загадаў службаў вызначэння месцазнаходжання. Гэта можа даць праграме магчымасць умешвацца ў аперацыі GPS альбо іншых крыніц даных пра месцазнаходжанне.",
        "permdesc_accessNetworkConditions": "Дае праграме магчымасць праслухоўваць даныя назіранняў за станам сеткі. Ніколі не патрабуецца звычайным праграмам.",
        "permdesc_accessNetworkState": "Дае праграме магчымасць праглядаць звесткi пра сеткавыя злучэнні, напрыклад пра тое, якiя сеткi iснуюць i з якiмi ёсць сувязь.",
        "permdesc_accessNotifications": "Дае праграме магчымасць атрымлiваць, правяраць i выдаляць апавяшчэннi, у тым лiку апублiкаваныя iншымi праграмамі.",
        "permdesc_accessWifiState": "Дае праграме магчымасць праглядаць звесткi пра злучэнні з сеткамі, напрыклад пра тое, дзе ёсць сеткi Wi-Fi i якiя прылады Wi-Fi да iх падлучаныя.",
        "permdesc_accessWimaxState": "Дае праграме магчымасць вызначаць, ці ўключаны WiMAX, і атрымліваць інфармацыю пра любую сетку WiMAX, з якімі наладжана злучэнне.",
        "permdesc_access_notification_policy": "Дае праграме магчымасць чытаць і запісваць канфігурацыю рэжыму \"Не турбаваць\".",
        "permdesc_activityRecognition": "Праграма можа распазнаваць фізічную актыўнасць.",
        "permdesc_addVoicemail": "Дае праграме магчымасць дадаваць паведамленні ў вашую скрыню галасавой пошты.",
        "permdesc_answerPhoneCalls": "Дае праграме магчымасць адказваць на ўваходны тэлефонны выклік.",
        "permdesc_audioWrite": "Праграма можа змяняць музычную калекцыю.",
        "permdesc_bindCarrierMessagingService": "Дае ўладальніку магчымасць звязвацца з інтэрфейсам верхняга ўзроўня службы паведамленняў аператара. Ніколі не патрабуецца звычайным праграмам.",
        "permdesc_bindCarrierServices": "Дазваляе ўладальніку ажыццяўляць прывязку да сэрвісаў аператара. Ніколі не патрабуецца для звычайных праграм.",
        "permdesc_bindConditionProviderService": "Дазваляе ўладальніку выконваць прывязку да інтэрфейсу верхняга ўзроўню пастаўшчыка ўмоў. Ніколі не патрабуецца для звычайных праграм.",
        "permdesc_bindDreamService": "Дазваляе ўладальніку выконваць прывязку да інтэрфейсу верхняга ўзроўню службы экраннай застаўкі. Ніколі не патрабуецца для звычайных праграм.",
        "permdesc_bindNotificationListenerService": "Дазваляе ўладальніку прывязвацца да верхняга ўзроўню інтэрфейсу службы прагляду апавяшчэнняў. Ніколі не патрабуецца для звычайных праграм.",
        "permdesc_bind_connection_service": "Дазваляе праграме ўзаемадзейнічаць са службамі тэлефаніі, каб здзяйсняць/прымаць выклікі.",
        "permdesc_bind_incall_service": "Дазваляе праграме кіраваць тым, калі і як карыстальнік бачыць экран бягучага выкліку.",
        "permdesc_bluetooth": "Дазваляе праграме праглядаць канфігурацыю Bluetooth на тэлефоне , а таксама ствараць і ўхваляць злучэнні са іншымі прыладамі.",
        "permdesc_bluetoothAdmin": "Дазваляе праграме наладжваць лакальны тэлефон з Bluetooth, а таксама знаходзіць адлеглыя прылады i падлучацца да ix.",
        "permdesc_bodySensors": "Дазваляе праграме атрымліваць доступ да даных з датчыкаў, якія назіраюць за вашым фізічным станам, напрыклад, за чашчынёй пульсу.",
        "permdesc_broadcastSticky": "Дазваляе праграме адпраўляць далейшыя звязаныя перадачы, якія застаюцца пасля заканчэння асноўнай перадачы. Злоўжыванне можа зрабіць працу тэлефона павольнай або няўстойлівай, бо будзе выкарыстоўвацца занадта шмат памяці.",
        "permdesc_callCompanionApp": "Праграма зможа праглядаць на прыладзе ўваходныя выклікі і кіраваць імі. Гэтая інфармацыя ўключае нумары выклікаў і звесткі пра іх краіну.",
        "permdesc_callPhone": "Дазваляе праграме тэлефанаваць без вашага ўмяшання. Гэта можа прывесці да нечаканага спагнання сродкаў. Звярніце ўвагу, што праграма не можа здзяйсняць экстраныя выклікi. Шкоднасныя праграмы могуць здзяйсняць выклікі без вашага ведама, за што могуць спаганяцца сродкі.",
        "permdesc_camera": "Гэтая праграма можа фатаграфаваць і запісваць відэа пры дапамозе камеры ў любы час.",
        "permdesc_changeNetworkState": "Дазваляе праграме змяняць стан сеткавага злучэння.",
        "permdesc_changeTetherState": "Дазваляе праграме змяняць стан злучэння з сеткай.",
        "permdesc_changeWifiMulticastState": "Дазваляе праграме атрымліваць даныя, адпраўленыя на ўсе прылады сеткі Wi-Fi шматаадраснай рассылкай. Будзе выкарыстоўвацца больш энергіі, чым у аднаадрасным рэжыме.",
        "permdesc_changeWifiState": "Дазваляе праграме падлучацца да пунктаў доступу Wi-Fi і адлучацца ад iх, а таксама ўносіць змены ў канфiгурацыю Wi-Fi.",
        "permdesc_changeWimaxState": "Дазваляе праграме падлучацца да сетак WiMAX і адлучацца ад iх.",
        "permdesc_connection_manager": "Дазваляе праграме кіраваць сеткавымі злучэннямі.",
        "permdesc_control_incall_experience": "Дазваляе праграме прапаноўваць аперацыі, звязаныя з выклікамі.",
        "permdesc_createNetworkSockets": "Дазваляе праграме ствараць сеткавыя сокеты і выкарыстоўваць адвольныя сеткавыя пратаколы. Браўзер і іншыя праграмы падаюць сродкі для перадачы даных у Iнтэрнэт, таму гэты дазвол не патрэбны для перадачы даных.",
        "permdesc_disableKeyguard": "Дазваляе праграме адключаць блакаванне экрана і іншыя функцыі абароны. Прыкладам гэтага з'яўляецца адключэнне тэлефонам блакавання экрана пры ўваходным выкліку і паўторнае ўключэнне пасля яго завяршэння.",
        "permdesc_enableCarMode": "Дазваляе праграме ўключаць рэжым гучнай сувязi.",
        "permdesc_expandStatusBar": "Дазваляе праграме разгортваць ці згортваць радок стану.",
        "permdesc_foregroundService": "Дазваляе праграме выкарыстоўваць актыўныя службы.",
        "permdesc_getAccounts": "Дазваляе праграме атрымлiваць спіс усіх акаўнтаў прылады, у тым ліку створаных усталяванымі праграмамі.",
        "permdesc_getPackageSize": "Дазваляе праграме атрымліваць код, даныя і аб'ём кэш-памяці",
        "permdesc_getTasks": "Дазваляе праграме атрымлiваць звесткi пра нядаўна запушчаныя задачы і задачы, якія выконваюцца. Такім чынам яна будзе атрымліваць звесткі пра праграмы, якія выкарыстоўваюцца на прыладзе.",
        "permdesc_handoverStatus": "Дазваляе праграме атрымліваць інфармацыю пра бягучыя перадачы Android Beam",
        "permdesc_imagesWrite": "Дазваляе праграме змяняць фотакалекцыю.",
        "permdesc_install_shortcut": "Дазваляе праграме дадаваць цэтлікі на галоўны экран без удзелу карыстальніка.",
        "permdesc_invokeCarrierSetup": "Дазваляе ўладальніку выклікаць праграму аператарскай канфігурацыі. Ніколі не патрабуецца для звычайных праграм.",
        "permdesc_killBackgroundProcesses": "Дазваляе праграме завяршаць фонавыя працэсы іншых праграм.",
        "permdesc_manageFace": "Дазваляе праграме дадаваць і выдаляць шаблоны твараў.",
        "permdesc_manageFingerprint": "Дазваляе праграме выкарыстоўваць спосабы дадання і выдалення шаблонаў адбіткаў пальцаў для выкарыстання.",
        "permdesc_manageNetworkPolicy": "Дазваляе праграме кіраваць сеткавымі палітыкамі і вызначаць правілы пэўных праграм.",
        "permdesc_manageOwnCalls": "Дазваляе праграме перанакіроўваць выклікі праз сістэму ў мэтах паляпшэння якасці выклікаў.",
        "permdesc_manageProfileAndDeviceOwners": "Дазваляе праграме вызначаць уладальнікаў профіляў і ўладальніка прылады.",
        "permdesc_mediaLocation": "Дазваляе праграме атрымліваць доступ да месцазнаходжання ў калекцыі мультымедыя.",
        "permdesc_modifyAudioSettings": "Дазваляе праграме змяняць сістэмныя налады гуку, такія як узровень гучнасці і дынамік для вываду.",
        "permdesc_modifyNetworkAccounting": "Дазваляе праграме змяняць метад уліку выкарыстання сеткавых рэсурсаў рознымі праграмамі. Не патрабуецца для звычайных праграм.",
        "permdesc_nfc": "Дазваляе праграме абменьвацца данымі з пазнакамі, карткамі і прыладамі для чытання Near Field Communication (NFC).",
        "permdesc_persistentActivity": "Дазваляе праграме захоўваць некаторыя свае кампаненты ў памяцi. Гэта можа абмежаваць аб'ём памяці для іншых праграм i запаволiць працу тэлефона.",
        "permdesc_processOutgoingCalls": "Дазваляе праграме бачыць набраны нумар падчас выходнага выкліку і мець магчымасць перанакіраваць ці завяршыць яго.",
        "permdesc_readCalendar": "Гэтая праграма можа чытаць, захоўваць, адпраўляць падзеі календара, захаваныя на вашым тэлефоне.",
        "permdesc_readCallLog": "Гэтая праграма можа чытаць вашую гісторыю выклікаў.",
        "permdesc_readCellBroadcasts": "Дазваляе праграме чытаць паведамленні базавай станцыі, атрыманыя прыладай. Папярэджанні базавай станцыі адпраўляюцца, каб папярэдзіць вас аб надзвычайных сітуацыях. Шкоднасныя праграмы могуць уплываць на прадукцыйнасць ці працу прылады пры атрыманні паведамлення базавай станцыі аб надзвычайнай сітуацыі.",
        "permdesc_readContacts": "Дазваляе праграме чытаць даныя кантактаў, якія захоўваюцца на тэлефоне, у тым ліку звесткi пра чашчыню, з якой вы ім тэлефанавалі, пiсалi iм па электроннай пошце ці кантактавалi іншым спосабам. Дзякуючы гэтаму дазволу праграмы могуць захоўваць даныя гiсторыi выклiкаў, а шкоднасныя праграмы могуць адпраўляць кантактныя даныя без вашага ведама.",
        "permdesc_readHistoryBookmarks": "Дазваляе праграме чытаць усе URL-адрасы, якiя былi наведаныя ў браўзеры і закладкi. Увага: гэты дазвол нельга ўжываць пабочнымi браўзерамi або iншымi праграмамі з уласцiвасцямi браўзера.",
        "permdesc_readInstallSessions": "Дазваляе праграме чытаць сеансы ўсталёўкі. Гэта дазваляе ёй праглядаць інфармацыю пра актыўныя усталёўкі пакункаў.",
        "permdesc_readNetworkUsageHistory": "Дазваляе праграме чытаць даныя выкарыстання сеткі для пэўных сетак і праграм.",
        "permdesc_readPhoneNumbers": "Дазваляе праграме атрымліваць доступ да нумароў тэлефонаў на прыладзе.",
        "permdesc_readPhoneState": "Дазваляе праграме атрымлiваць доступ да функцый тэлефона на прыладзе. Дзякуючы гэтаму дазволу праграма можа вызначаць нумары тэлефонаў i серыйны нумар прылады.",
        "permdesc_readSms": "Гэтая праграма можа чытаць усе SMS-паведамленні на вашым тэлефоне.",
        "permdesc_readSyncSettings": "Дазваляе праграме чытаць параметры сінхранізацыі акаўнта. Напрыклад, цi сiнхранiзаваная з акаўнтам праграма \\\"Кантакты\\\".",
        "permdesc_readSyncStats": "Дазваляе праграме чытаць статыстыку сінхранізацыі акаўнта, у тым ліку гісторыю падзей аб’ём сінхранізаваных даных.",
        "permdesc_receiveBootCompleted": "Дазваляе праграме самастойна запускацца пасля запуску сістэмы. Гэта можа павялічыць час запуску тэлефона і запаволіць працу тэлефона.",
        "permdesc_receiveMms": "Дазваляе праграме атрымліваць і апрацоўваць MMS-паведамленнi. Праграма можа адсочваць і выдаляць паведамленні без вашага ведама.",
        "permdesc_receiveSms": "Дазваляе праграме атрымліваць і апрацоўваць MMS-паведамленнi. Праграма можа адсочваць і выдаляць паведамленні без вашага ведама.",
        "permdesc_receiveWapPush": "Дазваляе праграме атрымліваць і апрацоўваць WAP-паведамленнi. Праграма можа адсочваць і выдаляць паведамленні без вашага ведама.",
        "permdesc_recordAudio": "Гэтая праграма можа у любы час запісваць аўдыё, выкарыстоўваючы мікрафон.",
        "permdesc_register_call_provider": "Дазваляе праграме рэгістраваць новыя падлучэнні сувязі.",
        "permdesc_register_sim_subscription": "Дазваляе праграме рэгістраваць новыя SIM.",
        "permdesc_removeDrmCertificates": "Дазваляе праграме выдаляць сертыфікаты DRM. Ніколі не павінна патрабавацца для звычайных праграм.",
        "permdesc_reorderTasks": "Дазваляе праграме пераключацца паміж актыўным і фонавым рэжымамі без удзелу карыстальніка.",
        "permdesc_requestDeletePackages": "Дазваляе праграме запытваць дазвол на выдаленне пакункаў.",
        "permdesc_requestIgnoreBatteryOptimizations": "Дазваляе праграме запытваць дазвол на ігнараванне аптымізацыі акумулятара для гэтай праграмы.",
        "permdesc_requestInstallPackages": "Дазваляе праграме запытваць дазвол на усталёўку пакункаў.",
        "permdesc_requestPasswordComplexity": "Дазваляе праграме вызначаць узровень складанасці блакавання экрана (высокі, сярэдні, нізкі ці нулявы), які залежыць ад даўжыні пароля і ад тыпу блакавання экрана. Праграма можа прапанаваць карыстальнікам ускладніць блакаванне экрана, аднак гэтую прапанову можна ігнараваць. Майце на ўвазе, што праграма не можа ведаць тып і пароль блакавання экрана, бо яны захоўваюцца ў зашыфраваным выглядзе.",
        "permdesc_route_media_output": "Дазваляе праграме перанакіроўваць мультымедыйны струмень на iншыя вонкавыя прылады.",
        "permdesc_runInBackground": "Гэтая праграма можа працаваць у фоне. Гэта можа прывесці да хутчэйшага спажывання зараду акумулятара.",
        "permdesc_sdcardRead": "Дазваляе праграме чытаць змесціва абагуленага сховішча.",
        "permdesc_sdcardWrite": "Дазваляе праграме запісваць змесціва абагуленага сховішча.",
        "permdesc_sendSms": "Дазваляе праграме адпраўляць SMS-паведамленні. Шкоднасныя праграмы могуць адпраўляць паведамленні без вашага ведама, што можа каштаваць вам грошай.",
        "permdesc_setAlarm": "Дазваляе праграме ствараць сігнал будзільніка. Гэтую функцыю падтрымліваюць не ўсе праграмы.",
        "permdesc_setInputCalibration": "Дазваляе праграме змяняць параметры калібравання сэнсарнага экрана. Ніколі не патрабуецца для звычайных праграм.",
        "permdesc_setTimeZone": "Дазваляе праграме змяняць часавы пояс тэлефона.",
        "permdesc_setWallpaper": "Дазваляе праграме прызначаць сiстэмныя шпалеры.",
        "permdesc_setWallpaperHints": "Дазваляе праграме прызначаць падказкі па памерах сiстэмных шпалер.",
        "permdesc_sim_communication": "Дазваляе праграме адпраўляць загады SIM-картцы. Гэта вельмі небяспечна.",
        "permdesc_startViewPermissionUsage": "Дазваляе праграме атрымліваць доступ да даных пра выкарыстоўваемыя дазволы. Ніколі не патрабуецца звычайным праграмам.",
        "permdesc_statusBar": "Дазваляе праграме адключаць радок стану або дадаваць і выдаляць сістэмныя значкі.",
        "permdesc_statusBarService": "Дазваляе праграме быць радком стану.",
        "permdesc_subscribedFeedsRead": "Дазваляе праграме атрымліваць інфармацыю пра каналы, якія сінхранізуюцца ў бягучы момант.",
        "permdesc_systemAlertWindow": "Гэта праграма можа паказвацца паверх іншых праграм ці іншых частак экрана. Гэта можа перашкодзіць выкарыстанню праграмы і змяніць выгляд іншых праграм.",
        "permdesc_transmitIr": "Дазваляе праграме выкарыстоўваць інфрачырвоны перадатчык тэлефона.",
        "permdesc_uninstall_shortcut": "Дазваляе праграме выдаляць цэтлікі з галоўнага экрана без удзелу карыстальніка.",
        "permdesc_useBiometric": "Дазваляе праграме выкарыстоўваць для аўтэнтыфікацыі біяметрычнае абсталяванне",
        "permdesc_useDataInBackground": "Гэтая праграма можа выкарыстоўваць даныя ў фоне. Гэта можа прывесці да павелічэння аб'ёму трафіка.",
        "permdesc_useFaceAuthentication": "Дазваляе праграме выкарыстоўваць для аўтэнтыфікацыі абсталяванне для распазнавання твару",
        "permdesc_useFingerprint": "Дазваляе праграме выкарыстоўваць для аўтэнтыфікацыі апаратныя сродкі для распазнавання адбіткаў пальцаў",
        "permdesc_use_sip": "Дазваляе праграме працаваць з выклікамі SIP.",
        "permdesc_vibrate": "Дазваляе праграме кіраваць вібрацыяй.",
        "permdesc_videoWrite": "Дазваляе праграме змяняць відэакалекцыю.",
        "permdesc_wakeLock": "Дазваляе праграме забараняць пераход прылады ў рэжым сну.",
        "permdesc_writeCalendar": "Гэтая праграма можа дадаваць, выдаляць або змяняць падзеі календара на вашым тэлефоне. Гэтая праграма можа адпраўляць паведамленні ад імя ўладальніка або змяняць падзеі без ведама ўладальніка.",
        "permdesc_writeCallLog": "Дазваляе праграме змяняць журнал выклiкаў тэлефона, у тым лiку даныя пра ўваходныя і выходныя выклiкi. Шкоднасныя праграмы могуць выкарыстоўваць гэта, каб ачышчаць або змяняць журнал выклікаў.",
        "permdesc_writeContacts": "Дазваляе праграме змяняць даныя кантактаў, якія захоўваюцца на тэлефоне, у тым ліку чашчыня, з якой вы ім тэлефанавалі, пiсалi па электроннай пошце ці іншым спосабам кантактавалi з iмі. З гэтым дазволам праграмы змогуць выдаляць кантактныя даныя.",
        "permdesc_writeGeolocationPermissions": "Дазваляе праграме змяняць налады доступу да геалакацыі браўзера. Шкоднасныя праграмы могуць выкарыстоўваць гэта, каб адпраўляць інфармацыю пра месцазнаходжанне выпадковым вэб-сайтам.",
        "permdesc_writeHistoryBookmarks": "Дазваляе праграме змяняць гісторыю і закладкі браўзера. Гэта дазволіць праграме выдаляць або змяняць даныя браўзера. Увага: гэты дазвол можа не дзейнiчаць для іншых браўзераў і праграм з магчымасцямі вэб-браўзера.",
        "permdesc_writeSettings": "Дазваляе праграме змяняць налады сістэмы. Шкоднасныя праграмы могуць пашкодзіць канфігурацыю вашай сістэмы.",
        "permdesc_writeSyncSettings": "Дазваляе праграме змяняць налады сінхранізацыі для акаўнта. Напрыклад, гэта можа выкарыстоўвацца для сінхранізацыі з акаўнтам кантактаў.",
        "permgroupbackgroundrequest_location": "Дазволіць дадатку <b>",
        "permgroupbackgroundrequestdetail_location": "Цяпер дадатак можа мець доступ да звестак пра месцазнаходжанне, толькі калі выкарыстоўваецца",
        "permgroupdesc_activityRecognition": "доступ да даных фізічнай актыўнасці",
        "permgroupdesc_calendar": "доступ да календара",
        "permgroupdesc_calllog": "чытанне і запіс журнала тэлефонных выклікаў",
        "permgroupdesc_camera": "фатаграфаванне і запіс відэа",
        "permgroupdesc_contacts": "доступ да кантактаў",
        "permgroupdesc_location": "доступ да даных месцазнаходжання прылады",
        "permgroupdesc_microphone": "запіс аўдыё",
        "permgroupdesc_phone": "здзяйсненне тэлефонных выклікаў і кіраванне імі",
        "permgroupdesc_sensors": "доступ да даных датчыка асноўных фізіялагічных паказчыкаў",
        "permgroupdesc_sms": "адпраўка і прагляд SMS-паведамленняў",
        "permgroupdesc_storage": "доступ да фатаграфій, медыяфайлаў і файлаў на прыладзе",
        "permgrouplab_activityRecognition": "Фізічная актыўнасць",
        "permgrouplab_calendar": "Каляндар",
        "permgrouplab_calllog": "Журнал выклікаў",
        "permgrouplab_camera": "Камера",
        "permgrouplab_contacts": "Кантакты",
        "permgrouplab_location": "Месцазнаходжанне",
        "permgrouplab_microphone": "Мікрафон",
        "permgrouplab_phone": "Тэлефон",
        "permgrouplab_sensors": "Датчыкі цела",
        "permgrouplab_sms": "SMS",
        "permgrouplab_storage": "Сховішча",
        "permgrouprequest_activityRecognition": "Дазволіць дадатку <b>",
        "permgrouprequest_calendar": "Дазволіць праграме <b>",
        "permgrouprequest_calllog": "Дазволіць праграме <b></b>",
        "permgrouprequest_camera": "Дазволіць праграме <b></b>",
        "permgrouprequest_contacts": "Дазволіць праграме <b></b>",
        "permgrouprequest_location": "Дазволіць праграме <b>",
        "permgrouprequest_microphone": "Дазволіць праграме <b>",
        "permgrouprequest_phone": "Дазволіць праграме <b>",
        "permgrouprequest_sensors": "Дазволіць праграме <b>",
        "permgrouprequest_sms": "Дазволіць праграме <b>",
        "permgrouprequest_storage": "Дазволіць праграме <b>",
        "permgrouprequestdetail_location": "Дадатак будзе мець доступ да звестак пра месцазнаходжанне толькі калі выкарыстоўваецца",
        "permlab_acceptHandover": "працяг выкліку з іншай праграмы",
        "permlab_accessBackgroundLocation": "доступ да вызначэння месцазнаходжання ў фонавым рэжыме",
        "permlab_accessCoarseLocation": "доступ да прыблізнага месцазнаходжання (на падставе сеткі) толькі ў актыўным рэжыме",
        "permlab_accessDrmCertificates": "доступ да сертыфікатаў DRM",
        "permlab_accessFineLocation": "доступ да дакладнага месцазнаходжання толькі ў асноўным рэжыме",
        "permlab_accessImsCallService": "доступ да службы выклікаў IMS",
        "permlab_accessLocationExtraCommands": "доступ да дадатковых загадаў пастаўшчыка месцазнаходжання",
        "permlab_accessNetworkConditions": "выкарыстанне даных пра стан сеткі",
        "permlab_accessNetworkState": "прагляд сеткавых злучэнняў",
        "permlab_accessNotifications": "доступ да паведамленняў",
        "permlab_accessWifiState": "прагляд злучэнняў Wi-Fi",
        "permlab_accessWimaxState": "падлучэнне /адлучэнне ад WiMAX",
        "permlab_access_notification_policy": "доступ да рэжыму \"Не турбаваць\"",
        "permlab_activityRecognition": "распазнаванне фізічнай актыўнасці",
        "permlab_addVoicemail": "даданне галасавых паведамленняў",
        "permlab_answerPhoneCalls": "адказ на тэлефонныя выклікі",
        "permlab_audioWrite": "змена музычнай калекцыі",
        "permlab_bindCarrierMessagingService": "прывязка да службы паведамленняў аператара",
        "permlab_bindCarrierServices": "прывязка да службаў аператара",
        "permlab_bindConditionProviderService": "прывязка да службы пастаўшчыка ўмоў",
        "permlab_bindDreamService": "прывязка да службы экраннай застаўкі",
        "permlab_bindNotificationListenerService": "прывязка да службы прагляду апавяшчэнняў",
        "permlab_bind_connection_service": "узаемадзеянне са службамі тэлефаніі",
        "permlab_bind_incall_service": "узаемадзеянне з экранам падчас выкліку",
        "permlab_bluetooth": "падлучэнне да прылад Bluetooth",
        "permlab_bluetoothAdmin": "доступ да налад Bluetooth",
        "permlab_bodySensors": "доступ да датчыкаў цела (напрыклад, пульсометраў)",
        "permlab_broadcastSticky": "адпраўка нетэрмiновай рассылкі",
        "permlab_callCompanionApp": "прагляд выклікаў і кіраванне імі праз сістэму.",
        "permlab_callPhone": "непасрэдны набор тэлефонных нумароў",
        "permlab_camera": "фатаграфаванне і запіс відэа",
        "permlab_changeNetworkState": "змена сеткавых налад",
        "permlab_changeTetherState": "змена прывязкі да падлучэння",
        "permlab_changeWifiMulticastState": "атрыманне даных шматадраснай рассылкі па Wi-Fi",
        "permlab_changeWifiState": "падлучэнне /адлучэнне ад Wi-Fi",
        "permlab_changeWimaxState": "змена стану WiMAX",
        "permlab_connection_manager": "кіраванне падлучэннямі сувязі",
        "permlab_control_incall_experience": "прапанаванне аперацый, звязаных з выклікам",
        "permlab_createNetworkSockets": "поўны доступ да сеткі",
        "permlab_disableKeyguard": "адключэнне блакавання экрана",
        "permlab_enableCarMode": "уключэнне рэжыму \\\"У аўтамабілі\\",
        "permlab_expandStatusBar": "разгортванне / згортванне радка стану",
        "permlab_foregroundService": "запуск актыўных службаў",
        "permlab_getAccounts": "пошук акаўнтаў на прыладзе",
        "permlab_getPackageSize": "падлік аб’ёму памяці праграм",
        "permlab_getTasks": "адкрыццё запушчаных праграм",
        "permlab_handoverStatus": "атрыманне статусу перадачы Android Beam",
        "permlab_imagesWrite": "змена фотакалекцыі",
        "permlab_install_shortcut": "стварэнне цэтлікаў",
        "permlab_invokeCarrierSetup": "выклік праграмы аператарскай канфігурацыі",
        "permlab_killBackgroundProcesses": "закрыццё іншых праграм",
        "permlab_manageFace": "кіраванне абсталяваннем для распазнавання твару",
        "permlab_manageFingerprint": "кіраванне апаратнымі сродкамі для распазнавання адбіткаў пальцаў",
        "permlab_manageNetworkPolicy": "кіраванне палітыкай сеткі",
        "permlab_manageOwnCalls": "перанакіраванне выклікаў праз сістэму",
        "permlab_manageProfileAndDeviceOwners": "кіраванне профілямі і ўладальнікамі прылады",
        "permlab_mediaLocation": "доступ да даных месцазнаходжання ў калекцыі мультымедыя",
        "permlab_modifyAudioSettings": "змена налад аудыё",
        "permlab_modifyNetworkAccounting": "змена метаду ўліку выкарыстання сеткі",
        "permlab_nfc": "кіраванне Near Field Communication",
        "permlab_persistentActivity": "кіраванне бесперапыннай працай праграм",
        "permlab_processOutgoingCalls": "перанакіраванне выходных выклікіаў",
        "permlab_readCalendar": "чытанне падзей календара і падрабязных звестак",
        "permlab_readCallLog": "чытанне журнала выклікаў",
        "permlab_readCellBroadcasts": "чытанне паведамленняў базавай станцыі",
        "permlab_readContacts": "чытанне кантактаў",
        "permlab_readHistoryBookmarks": "чытанне вэб-закладак і гісторыi",
        "permlab_readInstallSessions": "чытанне даных сеансаў усталёўкі",
        "permlab_readNetworkUsageHistory": "чытанне даных выкарыстання сеткі",
        "permlab_readPhoneNumbers": "чытанне нумароў тэлефонаў",
        "permlab_readPhoneState": "чытанне статусу тэлефона і ідэнтыфікацыя",
        "permlab_readSms": "чытанне SMS і MMS",
        "permlab_readSyncSettings": "чытанне параметраў сінхранізацыі",
        "permlab_readSyncStats": "чытанне статыстыкі сінхранізацыі",
        "permlab_receiveBootCompleted": "запуск пры загрузцы сістэмы",
        "permlab_receiveMms": "атрыманне тэкставых паведамленняў (MMS)",
        "permlab_receiveSms": "атрыманне тэкставых паведамленняў (SMS)",
        "permlab_receiveWapPush": "атрыманне тэкставых паведамленняў (WAP)",
        "permlab_recordAudio": "запіс аўдыё",
        "permlab_register_call_provider": "рэгістрацыя новых падлучэнняў сувязі",
        "permlab_register_sim_subscription": "рэгістрацыя новых SIM-картак",
        "permlab_removeDrmCertificates": "выдаленне сертыфікатаў DRM",
        "permlab_reorderTasks": "парадкаванне запушчаных праграм",
        "permlab_requestDeletePackages": "адпраўленне запытаў на выдаленне пакункаў",
        "permlab_requestIgnoreBatteryOptimizations": "адпраўленне запытаў на дазвол на ігнараванне аптымізацыі акумулятара",
        "permlab_requestInstallPackages": "адпраўленне запытаў на ўсталёўку пакункаў",
        "permlab_requestPasswordComplexity": "запыт даных узроўню складанасці блакавання экрана",
        "permlab_route_media_output": "перанакіраванне вываду мультымедыя",
        "permlab_runInBackground": "праца ў фоне",
        "permlab_sdcardRead": "чытанне змесціва абагуленага сховішча",
        "permlab_sdcardWrite": "змена або выдаленне змесціва абагуленага сховішча",
        "permlab_sendSms": "адпраўка і прагляд SMS-паведамленняў",
        "permlab_setAlarm": "стварэнне сігналаў будзільніка",
        "permlab_setInputCalibration": "змена параметраў калібравання экрана",
        "permlab_setTimeZone": "вызначэнне часавога поясу",
        "permlab_setWallpaper": "прызначэнне шпалер",
        "permlab_setWallpaperHints": "наладка памеру шпалер",
        "permlab_sim_communication": "адпраўка загадаў на SIM-картку",
        "permlab_startViewPermissionUsage": "прагляд даных пра выкарыстоўваемыя дазволы",
        "permlab_statusBar": "адключэнне ці змена радка стану",
        "permlab_statusBarService": "замена радка стану",
        "permlab_subscribedFeedsRead": "чытанне падпісаных каналаў",
        "permlab_systemAlertWindow": "Гэтая праграма можа паказвацца паверх іншых праграм",
        "permlab_transmitIr": "выкарыстанне інфрачырвонага перадатчыка",
        "permlab_uninstall_shortcut": "выдаленне цэтлікаў",
        "permlab_useBiometric": "выкарыстанне біяметрычнага абсталявання",
        "permlab_useDataInBackground": "выкарыстанне даных ў фоне",
        "permlab_useFaceAuthentication": "выкарыстанне абсталявання для распазнавання твару",
        "permlab_useFingerprint": "выкарыстанне апаратных сродкаў для распазнавання адбіткаў пальцаў",
        "permlab_use_sip": "здзяйсненне/прыманне выклікаў SIP",
        "permlab_vibrate": "кіраванне вібрацыяй",
        "permlab_videoWrite": "змена відэакалекцыі",
        "permlab_wakeLock": "забарона пераходу ў рэжым сну",
        "permlab_writeCalendar": "даданне / змена падзей календара і адпраўка электронных лістоў да без ведама ўладальнікаў",
        "permlab_writeCallLog": "змена журнала выклікаў",
        "permlab_writeContacts": "змена кантактаў",
        "permlab_writeGeolocationPermissions": "змена дазволаў не доступ да геаданых у браўзеры",
        "permlab_writeHistoryBookmarks": "запіс вэб-закладак і гісторыi",
        "permlab_writeSettings": "змена сістэмных налад",
        "permlab_writeSyncSettings": "уключэнне ці адключэнне сінхранізацыi"
    },
    "sidebars": {
        "donate": {
            "bank_transfer_name": "Назва",
            "bitcoin_alt": "Ахвяраваць праз Bitcoin",
            "flattr_alt": "Ахвяраваць праз Flattr",
            "heading": "Ахвяраваць",
            "hellotux": "👕 Цішоткі з 👕 ад",
            "hellotux_alt": "HELLOTUX",
            "hellotux_donation": "F-Droid атрымае 3 € з продажу цішоткі.",
            "liberapay_alt": "Ахвяраваць праз Liberapay",
            "litecoin_alt": "Ахвяраваць праз Litecoin",
            "opencollective_alt": "Ахвяраваць праз Collective",
            "paypal_alt": "Ахвяраваць праз PayPal",
            "powered_by_donations": "F-Droid працуе дзякуючы вашым ахвяраванням!",
            "via_bank_transfer": "Банкаўскі перавод"
        },
        "lang": {
            "change": "Змяніць"
        },
        "last_updated": {
            "heading": "Апошнія абнаўленні"
        },
        "latest_packages": {
            "heading": "Новыя праграмы"
        },
        "news": {
            "heading": "Навіны"
        },
        "search": {
            "heading": "Пошук праграм",
            "noscript": "Патрабуецца ўключыць JavaScript",
            "search": "Пошук"
        }
    }
}
